{
  "data":{
    "feed":[
      {
        "at_mentions": [],
        "author": {
          "avatar_url": "https://flow-cdn.getsupernatural.com/production/users/UT6bVuQ/profile_pic/NPMrQVw/1024.jpg",
          "bio": null,
          "first_name": "Olakitan",
          "follower": false,
          "following": false,
          "in_profile_group": true,
          "is_blocked": false,
          "is_instructor": false,
          "is_requested": false,
          "is_self": true,
          "is_verified": false,
          "last_name": "Bello",
          "profile_pic": "https://flow-cdn.getsupernatural.com/production/users/UT6bVuQ/profile_pic/NPMrQVw/1024.jpg",
          "profile_pic_base_url": "https://flow-cdn.getsupernatural.com/production/users/UT6bVuQ/profile_pic/NPMrQVw/",
          "str_id": "UT6bVuQ",
          "visibility": "public"
        },
        "author_id": "UT6bVuQ",
        "body": {
          "_num_accuracy_seen": 0,
          "_num_health_seen": 0,
          "accuracy_percentage": 0.9967181875926318,
          "accuracy_percentage_str": "99.7",
          "accuracy_points": 941,
          "activity_feed_processed": true,
          "app_version": "6.7.0.164840132",
          "avg_heart_rate": null,
          "avg_hit_vel": 7.785763794772508,
          "bonus_points": 0,
          "boxing_block_point_value": 0.2,
          "boxing_dodge_point_value": 0.2,
          "boxing_median_vel_1": 0.0,
          "boxing_median_vel_2": 0.0,
          "boxing_speed_hit_point_value": 0.1,
          "boxing_target_point_value": 0.2,
          "calendar_day": null,
          "classic_median_vel": 7.83,
          "closed_at": "2025-01-15T01:05:52+00:00",
          "created_at": "2025-01-15T00:33:26+00:00",
          "device_id": "fbeeebc2-9df7-437a-86bd-4e8c7e75014d",
          "device_type": "Meta Quest 3",
          "geolocation_id": null,
          "grade": 3,
          "grade_str": "Double Platinum",
          "group_grade": -1,
          "group_grade_str": "Partial Workout",
          "group_workout_session_id": null,
          "heart_rate_zones": null,
          "id": 47799109,
          "incomplete": false,
          "instructor_id": 25,
          "intended_length": 1891977,
          "intensity_id": 3,
          "is_abandoned": false,
          "is_demo": false,
          "is_tutorial": false,
          "max_accuracy_points": 9446,
          "max_boxing_blocks": 0,
          "max_boxing_dodges": 0,
          "max_boxing_hooks": 0,
          "max_boxing_jabs": 0,
          "max_boxing_uppercuts": 0,
          "max_heart_rate": null,
          "max_knee_strikes": 0,
          "max_power_hits": 5165,
          "max_power_points": 516,
          "max_power_streak": 87,
          "max_score": 1461,
          "max_streak": 646,
          "max_velocity": 12.67,
          "num_accuracy_processed": 6592,
          "num_health_processed": 0,
          "power_points": 466,
          "previous_best_score": 1443,
          "songs": [4923, 1127, 3072, 3862, 4123, 4931, 1293, 2922, 4771],
          "songs_skipped": null,
          "status": "FINISHED",
          "target_hits": 5134,
          "target_points": 513,
          "timezone": "America/Toronto",
          "total_boxing_block_points": 0,
          "total_boxing_blocks": 0,
          "total_boxing_dodges": 0,
          "total_boxing_dodges_points": 0,
          "total_boxing_hooks": 0,
          "total_boxing_hooks_points": 0,
          "total_boxing_jab_points": 0,
          "total_boxing_jabs": 0,
          "total_boxing_uppercut_points": 0,
          "total_boxing_uppercuts": 0,
          "total_knee_strike_points": 0,
          "total_knee_strikes": 0,
          "total_power_hits": 4667,
          "total_power_percentage": 0.9090377873003506,
          "total_power_percentage_str": "91",
          "total_power_points": 466,
          "total_score": 1407,
          "total_streak_time": 0,
          "total_targets": 5165,
          "total_time": 1841925,
          "total_triangles": 1427,
          "total_triggers": 5165,
          "total_triggers_with_triangles": 6592,
          "triangle_hits": 1427,
          "triangle_points": 428,
          "updated_at": "2025-01-15T01:05:57+00:00",
          "user_boxing_lower_bound_vel_1": 2.355,
          "user_boxing_lower_bound_vel_2": 4.800000000000001,
          "user_boxing_median_vel_1": 3.14,
          "user_boxing_median_vel_2": 6.4,
          "user_boxing_standard_deviation_vel_1": 0.8798559000723366,
          "user_boxing_standard_deviation_vel_2": 1.6775056405630526,
          "user_boxing_vel_threshold_1": 2.2601440999276634,
          "user_boxing_vel_threshold_2": 4.722494359436948,
          "user_current_goal": null,
          "user_effort_lower_bound": 6.568000000000001,
          "user_id": "UT6bVuQ",
          "user_median_effort": 8.21,
          "user_standard_deviation": 1.887973858204342,
          "video_url": null,
          "workout_id": 4685,
          "workout_type": "classic"
        },
        "comment_count": 0,
        "created_at": "2025-01-15T01:05:53+00:00",
        "disable_reply": false,
        "headline": "Monster",
        "id": 38709481,
        "is_active": true,
        "like_count": 0,
        "links": {
          "author": "/v1/user/UT6bVuQ",
          "comments": "/v1/feed/38709481/comments",
          "likes": "/v1/feed/38709481/likes",
          "post": "/v1/feed?feed_id=38709481",
          "workout_session": "/v1/analytics/workout_session/47799109"
          },
        "official": false,
        "pc_pinned": false,
        "pinned_start": null,
        "pinned_until": null,
        "post_type": "workout",
        "posted_at": "2025-01-15T01:05:53+00:00",
        "shareable_id": null,
        "shareable_url": null,
        "text": "",
        "top_comment": {},
        "top_likes": [],
        "type": "post",
        "updated_at": "2025-01-15T01:05:53+00:00",
        "user_liked": false,
        "visibility": "public",
        "workout": {
          "active_version": true,
          "badge": null,
          "base_ca_thumbnail_url": "https://flow-cdn.getsupernatural.com/production/workout/4685/Nmnb0jA-ca/",
          "base_thumbnail_url": "https://flow-cdn.getsupernatural.com/production/workout/4685/NBbxVaQ/",
          "can_play": true,
          "cdn_nonce": "NBbxVaQ",
          "cdn_nonce_ca": "Nmnb0jA",
          "created_at": "2024-11-11T17:02:12+00:00",
          "description": "Find your edge with Coach Leanne to a set of moody Pop and Dance bangers from the 10s through today in this high-intensity workout.",
          "disabled": false,
          "duration": 1891.9777,
          "favorite_feature_src": null,
          "homescreen_only": false,
          "id": 4685,
          "instructor": {
            "created_at": "2020-01-22T23:33:27+00:00",
            "description": "Find your inner freedom, pride and power",
            "disabled": false,
            "first_name": "Leanne",
            "id": 25,
            "is_active": true,
            "is_guest": false,
            "last_name": "Pedante",
            "priority": 0,
            "profile_pic": "https://flow-cdn.getsupernatural.com/production/users/UI7b9iQ/profile_pic/NoqxBUQ/1024.jpg",
            "profile_pic_base_url": "https://flow-cdn.getsupernatural.com/production/users/UI7b9iQ/profile_pic/NoqxBUQ/",
            "str_id": "UI7b9iQ",
            "updated_at": "2022-06-02T20:15:41+00:00"
          },
          "instructor_id": 25,
          "intensity_id": 3,
          "interaction_type": "solo",
          "is_favorite": true,
          "is_lifecycle": false,
          "launch_date": "2024-11-11T08:00:00+00:00",
          "multiple_coaches": false,
          "note": null,
          "spotify_url": "https://open.spotify.com/playlist/1uu4d7yIBiuvRd8VdQrgww?si=a16bfc273b7648ce",
          "sub_header": "Leanne Pedante",
          "subtitle": "\"Howl At the Moon\"",
          "title": "Monster",
          "updated_at": "2024-11-11T17:02:12+00:00",
          "user": {
            "can_play": true,
            "favorite_feature_src": null,
            "has_completed": true,
            "is_favorite": true,
            "last_played": "2025-01-15T01:05:53+00:00",
            "last_played_activity_feed_id": 38709481,
            "play_count": 2,
            "top_grade": 1,
            "top_grade_str": "Diamond",
            "top_score": 1443
          },
          "version": 11,
          "visibility": "public",
          "workout_type": "classic"
        }
      }
    ]
  },
  "paging":{
    "page":3,
    "pages":2,
    "per_page":50,
    "total":69
  },
  "status_code":200,
  "success":true,
  "wall_clock_unix":1736909766283
}